<svg width="36" height="36" viewBox="0 0 36 36" fill="none" xmlns="http://www.w3.org/2000/svg">
<g clip-path="url(#clip0_4_273)">
<path d="M35.0873 14.4512L35.0375 14.3241L30.2259 1.76682C30.128 1.52065 29.9546 1.31183 29.7306 1.17029C29.5066 1.03116 29.2452 0.964138 28.9819 0.978271C28.7185 0.992404 28.4659 1.08701 28.258 1.24932C28.0524 1.41628 27.9034 1.64256 27.8311 1.89732L24.5823 11.8373H11.4269L8.17788 1.89732C8.10739 1.64127 7.95801 1.41394 7.75094 1.24763C7.54308 1.08533 7.29041 0.990717 7.02706 0.976583C6.76371 0.96245 6.50236 1.02947 6.27832 1.1686C6.05491 1.31076 5.88169 1.51939 5.78304 1.76513L0.962414 14.3168L0.914602 14.4439C-0.508242 18.1617 0.700008 22.3729 3.87813 24.7703L3.89473 24.7832L3.93888 24.8144L11.2685 30.3033L14.8947 33.0477L17.1036 34.7155C17.362 34.9117 17.6775 35.0178 18.0019 35.0178C18.3264 35.0178 18.6418 34.9117 18.9003 34.7155L21.1092 33.0477L24.7353 30.3033L32.1092 24.7812L32.1274 24.7666C35.298 22.3687 36.5043 18.1651 35.0873 14.4512Z" fill="#E24329"/>
<path d="M35.0873 14.4512L35.0376 14.324C32.693 14.8053 30.4837 15.7984 28.5674 17.2324L18 25.223C21.5986 27.9455 24.7314 30.3108 24.7314 30.3108L32.1053 24.7888L32.1235 24.7742C35.2991 22.3759 36.5071 18.1682 35.0873 14.4512Z" fill="#FC6D26"/>
<path d="M11.2686 30.3106L14.8947 33.055L17.1036 34.7228C17.3621 34.919 17.6776 35.0251 18.002 35.0251C18.3264 35.0251 18.6419 34.919 18.9003 34.7228L21.1092 33.055L24.7354 30.3106C24.7354 30.3106 21.5989 27.938 18.0003 25.2228C15.755 26.9169 13.5111 28.6128 11.2686 30.3106Z" fill="#FCA326"/>
<path d="M7.4306 17.2325C5.51585 15.7956 3.30706 14.8 0.962414 14.3168L0.914602 14.4439C-0.508242 18.1617 0.700008 22.3729 3.87813 24.7703L3.89473 24.7832L3.93888 24.8144L11.2685 30.3033L18 25.2155L7.4306 17.2325Z" fill="#FC6D26"/>
</g>
<defs>
<clipPath id="clip0_4_273">
<rect width="36" height="36" fill="white"/>
</clipPath>
</defs>
</svg>
