<svg width="23" height="36" viewBox="0 0 23 36" fill="none" xmlns="http://www.w3.org/2000/svg">
<g clip-path="url(#clip0_4_267)">
<path d="M5.75 36C8.924 36 11.5 33.312 11.5 30V24H5.75C2.576 24 0 26.688 0 30C0 33.312 2.576 36 5.75 36Z" fill="#0ACF83"/>
<path d="M0 18C0 14.688 2.576 12 5.75 12H11.5V24H5.75C2.576 24 0 21.312 0 18Z" fill="#A259FF"/>
<path d="M0 6C0 2.688 2.576 0 5.75 0H11.5V12H5.75C2.576 12 0 9.312 0 6Z" fill="#F24E1E"/>
<path d="M11.5 0H17.25C20.424 0 23 2.688 23 6C23 9.312 20.424 12 17.25 12H11.5V0Z" fill="#FF7262"/>
<path d="M23 18C23 21.312 20.424 24 17.25 24C14.076 24 11.5 21.312 11.5 18C11.5 14.688 14.076 12 17.25 12C20.424 12 23 14.688 23 18Z" fill="#1ABCFE"/>
</g>
<defs>
<clipPath id="clip0_4_267">
<rect width="23" height="36" fill="white"/>
</clipPath>
</defs>
</svg>
