<svg width="22" height="22" viewBox="0 0 22 22" fill="none" xmlns="http://www.w3.org/2000/svg">
<g clip-path="url(#clip0_106_236)">
<path d="M16.8438 0H5.15625C2.30853 0 0 2.30853 0 5.15625V16.8438C0 19.6915 2.30853 22 5.15625 22H16.8438C19.6915 22 22 19.6915 22 16.8438V5.15625C22 2.30853 19.6915 0 16.8438 0Z" fill="#242938"/>
<path d="M19.5938 15.7212C19.3436 15.8159 19.0674 15.8157 18.8173 15.7207C18.5673 15.6256 18.3607 15.4422 18.2367 15.2051C17.4579 14.0392 16.5978 12.9259 15.7712 11.7887L15.4127 11.3109C14.4284 12.6297 13.4441 13.8959 12.5458 15.2099C12.4288 15.4365 12.2334 15.6128 11.996 15.706C11.7587 15.7992 11.4956 15.8029 11.2557 15.7165L14.9493 10.7614L11.5136 6.28404C11.761 6.19474 12.0315 6.19351 12.2796 6.28056C12.5277 6.36761 12.7382 6.53761 12.8755 6.76186C13.6734 7.92786 14.5575 9.04118 15.4366 10.2214C16.3206 9.05072 17.1951 7.93258 18.0122 6.77621C18.1298 6.55333 18.3253 6.38149 18.5614 6.29338C18.7975 6.20528 19.0578 6.20706 19.2927 6.2984L17.9596 8.06639C17.3623 8.85478 16.7746 9.64798 16.1534 10.4173C16.1033 10.4621 16.0633 10.517 16.0358 10.5783C16.0084 10.6396 15.9942 10.7061 15.9942 10.7733C15.9942 10.8405 16.0084 10.9069 16.0358 10.9683C16.0633 11.0296 16.1033 11.0845 16.1534 11.1293C17.2954 12.644 18.4278 14.1635 19.5938 15.7212ZM2.40625 10.6993C2.50662 10.2214 2.56867 9.70057 2.70729 9.21322C3.53392 6.27459 6.90259 5.05127 9.22006 6.87186C10.5771 7.93748 10.9164 9.4474 10.8495 11.1484H3.20427C3.08 14.1875 5.27321 16.0223 8.07804 15.0858C8.53302 14.923 8.94032 14.6495 9.26316 14.2899C9.586 13.9304 9.81423 13.4961 9.92724 13.0263C10.0754 12.5485 10.3143 12.4672 10.7682 12.6058C10.6935 13.1875 10.4878 13.7447 10.1667 14.2355C9.8456 14.7263 9.4174 15.1379 8.9143 15.4393C8.08308 15.8939 7.1294 16.074 6.18964 15.9539C5.24989 15.8337 4.37219 15.4195 3.68208 14.7704C2.99933 14.0027 2.58651 13.0327 2.50662 12.0085C2.50662 11.8461 2.44449 11.6836 2.41106 11.5307C2.4079 11.2536 2.4063 10.9764 2.40625 10.6993ZM3.2138 10.4938H10.128C10.0849 8.29103 8.69447 6.72851 6.84054 6.71425C4.77632 6.68554 3.29983 8.21454 3.20899 10.4842L3.2138 10.4938Z" fill="white"/>
</g>
<defs>
<clipPath id="clip0_106_236">
<rect width="22" height="22" fill="white"/>
</clipPath>
</defs>
</svg>
